# New personalities cannot be added to this file
# Do not change existing personality names!

human = {
	chance = {
		factor = 0
	}
	
	icon = 1
}

ai_capitalist = {
	chance = {
		factor = 100
		modifier = {
			factor = 0.5
			NOT = { adm = 1 }
		}			
		modifier = {
			factor = 0.5
			NOT = { adm = 2 }
		}
		modifier = {
			factor = 0.5
			NOT = { adm = 3 }
		}	
		modifier = {
			factor = 1.5
			adm = 4
		}		
		modifier = {
			factor = 1.5
			adm = 5
		}		
		modifier = {
			factor = 1.5
			adm = 6
		}
		modifier = {
			factor = 1.1
			administrative_ideas = 1
		}		
		modifier = {
			factor = 1.1
			trade_ideas = 1
		}			
		modifier = {
			factor = 1.1
			economic_ideas = 1
		}
		modifier = {
			factor = 1.1
			plutocracy_ideas = 1
		}
		modifier = {
			factor = 1.25 
			NOT = { total_development = 30 }
		}
		modifier = {
			factor = 2
			has_government_attribute = is_merchant_republic
		}
		modifier = {
			factor = 5
			has_reform = free_city
		}
	}
	icon = 2
}

ai_diplomat = {
	chance = {
		factor = 100
		modifier = {
			factor = 0.5
			NOT = { dip = 1 }
		}			
		modifier = {
			factor = 0.5
			NOT = { dip = 2 }
		}
		modifier = {
			factor = 0.5
			NOT = { dip = 3 }
		}	
		modifier = {
			factor = 1.5
			dip = 4
		}		
		modifier = {
			factor = 1.5
			dip = 5
		}		
		modifier = {
			factor = 1.5
			dip = 6
		}
		modifier = {
			factor = 1.1
			aristocracy_ideas = 1
		}			
		modifier = {
			factor = 1.1
			spy_ideas = 1
		}
		modifier = {
			factor = 1.1
			diplomatic_ideas = 1
		}	
		modifier = {
			factor = 1.1
			innovativeness_ideas = 1
		}		
		modifier = {
			factor = 1.25
			NOT = { total_development = 30 }
		}	
		modifier = {
			factor = 1.5
			is_emperor = yes
			total_development = 50
		}
		modifier = {
			factor = 1.5
			is_emperor = yes
			total_development = 100
		}
		modifier = {
			factor = 5
			has_reform = free_city
		}		
	}
	icon = 3
}

ai_militarist = {
	chance = {
		factor = 100
		modifier = {
			factor = 0
			has_regency = yes
		}	
		modifier = {
			factor = 0.5
			government = republic
		}
		modifier = {
			factor = 0.5
			NOT = { mil = 1 }
		}			
		modifier = {
			factor = 0.5
			NOT = { mil = 2 }
		}
		modifier = {
			factor = 0.5
			NOT = { mil = 3 }
		}
		modifier = {
			factor = 0.5
			is_emperor = yes
			total_development = 50
		}
		modifier = {
			factor = 0.5
			is_emperor = yes
			total_development = 100
		}			
		modifier = {
			factor = 1.5
			mil = 4
		}		
		modifier = {
			factor = 1.5
			mil = 5
		}		
		modifier = {
			factor = 1.5
			mil = 6
		}	
		modifier = {
			factor = 1.1
			offensive_ideas = 1
		}			
		modifier = {
			factor = 1.1
			defensive_ideas = 1
		}
		modifier = {
			factor = 1.1
			quality_ideas = 1
		}
		modifier = {
			factor = 1.1
			quantity_ideas = 1
		}			
		modifier = {
			factor = 1.1
			religious_ideas = 1
		}		
		modifier = {
			factor = 1.25
			any_neighbor_country = {
				is_rival = ROOT
			}
		}
		modifier = {
			factor = 100
			invasion_nation = yes
		}
		modifier = {
			factor = 3
			government = native
		}
		modifier = {
			factor = 3
			has_reform = steppe_horde
		}
		modifier = {
			factor = 100
			OR = {
				has_reform = daimyo
				has_reform = indep_daimyo
				has_reform = shogunate
			}
		}
		modifier = {
			factor = 2
			is_march = yes
		}
		modifier = {
			factor = 0.5
			num_of_loans = 1
		}
		modifier = {
			factor = 0.5
			num_of_loans = 3
		}
		modifier = {
			factor = 0.5
			num_of_loans = 5
		}
		modifier = {
			factor = 0.5
			num_of_loans = 7
		}
	}
	icon = 4
}

ai_colonialist = {
	chance = {
		factor = 100	
		modifier = {
			factor = 0.5
			has_regency = yes
		}		
		modifier = {
			factor = 0.5
			NOT = { adm = 1 }
		}			
		modifier = {
			factor = 0.5
			NOT = { adm = 2 }
		}
		modifier = {
			factor = 0.5
			NOT = { adm = 3 }
		}	
		modifier = {
			factor = 1.5
			adm = 4
		}		
		modifier = {
			factor = 1.5
			adm = 5
		}		
		modifier = {
			factor = 1.5
			adm = 6
		}	
		modifier = {
			factor = 1.1
			trade_ideas = 1
		}			
		modifier = {
			factor = 1.1
			exploration_ideas = 1
		}			
		modifier = {
			factor = 1.1
			maritime_ideas = 1
		}
		modifier = {
			factor = 1.1
			expansion_ideas = 1
		}		
		modifier = {
			factor = 0
			NOT = { num_of_colonists = 1 }
		}
		
		#Anbennar additions
		modifier = {
			factor = 10
			tag = A21 #Venail
		}
		modifier = {
			factor = 5
			OR = {
				tag = A29 #Busilar
				tag = A21 #Venail
				tag = Z08 #Bjarnrik
			}
		}
		modifier = {
			factor = 3
			OR = {
				tag = A11 #Pearlsedge
				tag = A02 #Deranne
				tag = A21 #Venail
				tag = A47 #Eborthil
				tag = A05 #Reveria
				tag = F08 #Ekha
				tag = A19 #Portnamm
				tag = A09 #Sorncost
			}
		}
		modifier = {
			factor = 2
			OR = {
				tag = A01 #Lorent
				tag = A06 #Nimscodd
				tag = A33 #Verne
				tag = F07 #Viakkoc
				tag = A31 #Moonhaven
				tag = A85 #Magisterium
				tag = A38 #Anbenncost
				tag = A16 #Wineport
			}
		}
		modifier = {
			factor = 1.5
			OR = {
				tag = A13 #Gawed
				tag = A04 #Wesdam
				tag = A55 #Dameria
				tag = A25 #Damescrown
				tag = A23 #Vertesk
			}
		}
	}
	icon = 5
}

ai_balanced = {
	chance = {
		factor = 100
		modifier = {
			factor = 1.25
			always = yes # higher base chance
		}	
		modifier = {
			factor = 100
			ai = no
		}
		modifier = {
			factor = 0
			has_regency = yes
		}		
		modifier = {
			factor = 0.5
			NOT = {
				adm = 1
				dip = 1
				mil = 1
			}
		}
		modifier = {
			factor = 0.5
			NOT = {
				adm = 2
				dip = 2
				mil = 2
			}
		}
		modifier = {
			factor = 0.5
			NOT = {
				adm = 3
				dip = 3
				mil = 3
			}
		}	
		modifier = {
			factor = 1.5
			adm = 4
			dip = 4
			mil = 4
		}
		modifier = {
			factor = 1.5
			adm = 5
			dip = 5
			mil = 5
		}		
		modifier = {
			factor = 1.5
			adm = 6
			dip = 6
			mil = 6
		}
	}
	icon = 6
}