#127 - Sassari | 

owner = A21
controller = A21
add_core = A21
culture = moon_elf
religion = elven_forebears

hre = no

base_tax = 7
base_production = 6
base_manpower = 2

trade_goods = glass
capital = ""

is_city = yes








