#149 - Edirne

owner = A65
controller = A65
add_core = A65
culture = bluefoot_halfling
religion = regent_court
hre = no
base_tax = 3
base_production = 3
trade_goods = grain
base_manpower = 2
capital = "" 
is_city = yes









