#388 - Aden

owner = F08
controller = F08
add_core = F08
culture = far_akani
religion = mother_akan

hre = no

base_tax = 3
base_production = 2
base_manpower = 2

trade_goods = fish

capital = ""

is_city = yes








