#486 - Guantanamo		

owner = F09
controller = F09
add_core = F09
culture = sandfang_gnoll
religion = xhazobkult

hre = no

base_tax = 3
base_production = 2
base_manpower = 4

trade_goods = grain

capital = ""

is_city = yes




