#918 -

owner = A48
controller = A48
add_core = A48
culture = wexonard
religion = regent_court
hre = yes

base_tax = 1
base_production = 3
base_manpower = 2

trade_goods = naval_supplies

capital = ""

is_city = yes











