#98 - Utrecht | 

owner = A18
controller = A18
add_core = A18
culture = low_lorentish
religion = regent_court

hre = no

base_tax = 5
base_production = 5
base_manpower = 2

trade_goods = livestock

capital = ""

is_city = yes








