namespace = allclan_diplo

#vassalize
country_event = {
	id = allclan_diplo.1
	title = allclan_diplo.1.t
	desc = allclan_diplo.1.d
	picture = TRADEGOODS_eventPicture

	trigger = {
		#has_reform = nezkaru_council_reform
		is_subject = no
	}

	is_triggered_only = yes

	immediate = {
	}

	#refuse
	option = {
		name = allclan_diplo.1.a
		add_prestige = 10
		I98 = {
			country_event = {
				id = allclan_diplo.8
				days = 0
			}
		}
		ai_chance = {
			factor = 50
			modifier = {
				factor = 0
				total_development = 150
			}
		}
	}

	#accept
	option = {
		name = allclan_diplo.1.b
		I98 = {
			country_event = {
				id = allclan_diplo.9
				days = 0
			}
		}
		ai_chance = {
			factor = 10
			modifier = {
				factor = 2
				I98 = { prestige = 50 }
			}
			modifier = {
				factor = 2
				I98 = { prestige = 100 }
			}
			modifier = {
				factor = 10
				I98 = {
					army_strength = {
						who = ROOT
						value = 1.51
					}
				}
			}
			modifier = {
				factor = 100
				NOT = { total_development = 150 }
			}
			modifier = {
				factor = 0
				total_development = 400
			}
			modifier = {
				factor = 0
				tag = I99
			}
			modifier = {
				factor = 0
				has_country_flag = lich_ruler
			}
			modifier = {
				factor = 0
				has_reform = thorn_cartels_reform
			}
			modifier = {
				factor = 0
				border_distance = {
					who = I98
					distance = 100
				}
			}
		}
	}
}

#ask for tribute
country_event = {
	id = allclan_diplo.2
	title = allclan_diplo.2.t
	desc = allclan_diplo.2.d
	picture = TRADEGOODS_eventPicture

	trigger = {
		#has_reform = nezkaru_council_reform
		is_subject = no
	}

	is_triggered_only = yes

	immediate = {
	}

	#refuse
	option = {
		name = allclan_diplo.2.a
		add_prestige = 10
		I98 = {
			country_event = {
				id = allclan_diplo.6
				days = 0
			}
		}
		ai_chance = {
			factor = 50 
			modifier = {
				factor = 0
				total_development = 150
			}
		}
	}

	#accept
	option = {
		name = allclan_diplo.2.b
		add_prestige = -10
		I98 = {
			country_event = {
				id = allclan_diplo.9
				days = 0
			}
		}
		ai_chance = {
			factor = 25
			modifier = {
				factor = 2
				I98 = { prestige = 50 }
			}
			modifier = {
				factor = 2
				I98 = { prestige = 100 }
			}
			modifier = {
				factor = 10
				I98 = {
					army_strength = {
						who = ROOT
						value = 1.51
					}
				}
			}
			modifier = {
				factor = 100
				NOT = { total_development = 150 }
			}
			modifier = {
				factor = 0
				total_development = 400
			}
			modifier = {
				factor = 0
				tag = I99
			}
			modifier = {
				factor = 0
				has_reform = thorn_cartels_reform
			}
			modifier = {
				factor = 0
				border_distance = {
					who = I98
					distance = 400
				}
			}
		}
	}
}

country_event = {
	id = allclan_diplo.3
	title = allclan_diplo.3.t
	desc = allclan_diplo.3.d
	picture = TRADEGOODS_eventPicture

	trigger = {
		#has_reform = nezkaru_council_reform
		always = yes
	}

	is_triggered_only = yes

	immediate = {
	}

	#say yes
	option = {
		name = allclan_diplo.3.a
		add_prestige = 20
		change_innovativeness = 10
		add_adm_power = -25
		add_dip_power = -25
		add_mil_power = 50
		I98 = {
			country_event = {
				id = allclan_diplo.4
				days = 365
			}
		}
		ai_chance = { factor = 25 }
	}

	#say no
	option = {
		name = allclan_diplo.3.b
		add_mil_power = 50
		I98 = {
			country_event = {
				id = allclan_diplo.5
				days = 365
			}
		}
		ai_chance = { factor = 0 }
	}
}

country_event = {
	id = allclan_diplo.4
	title = allclan_diplo.4.t
	desc = allclan_diplo.4.d
	picture = TRADEGOODS_eventPicture

	trigger = {
		#has_reform = nezkaru_council_reform
		always = yes
	}

	is_triggered_only = yes

	immediate = {
	}

	#they said yes
	option = {
		name = allclan_diplo.4.a
		add_prestige = 20
		change_innovativeness = 5
		add_adm_power = 25
		add_dip_power = 25
		ai_chance = { factor = 25 }
	}
}

country_event = {
	id = allclan_diplo.5
	title = allclan_diplo.5.t
	desc = allclan_diplo.5.d
	picture = TRADEGOODS_eventPicture

	trigger = {
		#has_reform = nezkaru_council_reform
		always = yes
	}

	is_triggered_only = yes

	immediate = {
	}

	#they said no!!!
	option = {
		name = allclan_diplo.5.a
		add_prestige = -20
		add_casus_belli = {
			target = FROM
			type = cb_humiliate_rotw
			months = 240
		}
		ai_chance = { factor = 25 }
	}
}

country_event = {
	id = allclan_diplo.6
	title = allclan_diplo.6.t
	desc = allclan_diplo.6.d
	picture = TRADEGOODS_eventPicture

	trigger = {
		#has_reform = nezkaru_council_reform
		always = yes
	}

	is_triggered_only = yes

	immediate = {
	}

	#they said no!!!
	option = {
		name = allclan_diplo.6.a
		add_casus_belli = {
			target = ROOT
			type = cb_force_tributary 
			months = 12
		}
		ai_chance = { factor = 25 }
	}
}

country_event = {
	id = allclan_diplo.7
	title = allclan_diplo.7.t
	desc = allclan_diplo.7.d
	picture = TRADEGOODS_eventPicture

	trigger = {
		#has_reform = nezkaru_council_reform
		always = yes
	}

	is_triggered_only = yes

	immediate = {
	}

	#they said no!!!
	option = {
		name = allclan_diplo.7.a
		add_casus_belli = {
			target = ROOT
			type = cb_vassalize_mission
			months = 12
		}
		ai_chance = { factor = 25 }
	}
}

#they said yes
country_event = {
	id = allclan_diplo.8
	title = allclan_diplo.8.t
	desc = allclan_diplo.8.d
	picture = TRADEGOODS_eventPicture

	trigger = {
		#has_reform = nezkaru_council_reform
		always = yes
	}

	is_triggered_only = yes

	immediate = {
	}

	#they said yes
	option = {
		name = allclan_diplo.8.a
		vassalize = FROM
		ai_chance = { factor = 25 }
	}
}

country_event = {
	id = allclan_diplo.9
	title = allclan_diplo.9.t
	desc = allclan_diplo.9.d
	picture = TRADEGOODS_eventPicture

	trigger = {
		#has_reform = nezkaru_council_reform
		always = yes
	}

	is_triggered_only = yes

	immediate = {
	}

	#they said yes
	option = {
		name = allclan_diplo.8.a
		create_subject = {
			subject_type = tributary_state
			subject = FROM
		}
		ai_chance = { factor = 25 }
	}
}